{
  "results": [
    {
      "popularity": 247.732,
      "vote_count": 292,
      "video": false,
      "poster_path": "/aQvJ5WPzZgYVDrxLX4R6cLJCEaQ.jpg",
      "id": 454626,
      "adult": false,
      "backdrop_path": "/qonBhlm0UjuKX2sH7e73pnG0454.jpg",
      "original_language": "en",
      "original_title": "Sonic the Hedgehog",
      "genre_ids": [28, 35, 878, 10751],
      "title": "Sonic the Hedgehog",
      "vote_average": 7.1,
      "overview": "Based on the global blockbuster videogame franchise from Sega, Sonic the Hedgehog tells the story of the world’s speediest hedgehog as he embraces his new home on Earth. In this live-action adventure comedy, Sonic and his new best friend team up to defend the planet from the evil genius Dr. Robotnik and his plans for world domination.",
      "release_date": "2020-02-12"
    },
    {
      "popularity": 150.027,
      "vote_count": 296,
      "video": false,
      "poster_path": "/yJdeWaVXa2se9agI6B4mQunVYkB.jpg",
      "id": 449924,
      "adult": false,
      "backdrop_path": "/ekP6EVxL81lZ4ivcqPsoZ72rY0h.jpg",
      "original_language": "cn",
      "original_title": "葉問4",
      "genre_ids": [28, 18, 36],
      "title": "Ip Man 4: The Finale",
      "vote_average": 5.9,
      "overview": "Following the death of his wife, Ip Man travels to San Francisco to ease tensions between the local kung fu masters and his star student, Bruce Lee, while searching for a better future for his son.",
      "release_date": "2019-12-20"
    },
    {
      "popularity": 105.65,
      "vote_count": 423,
      "video": false,
      "poster_path": "/5eNiYMu2GXCtNlDwMcJqKGVwyoX.jpg",
      "id": 448119,
      "adult": false,
      "backdrop_path": "/lG802rseTZcN9mtLsQPVfApEVzM.jpg",
      "original_language": "en",
      "original_title": "Dolittle",
      "genre_ids": [12, 35, 14, 10751],
      "title": "Dolittle",
      "vote_average": 6.4,
      "overview": "After losing his wife seven years earlier, the eccentric Dr. John Dolittle, famed doctor and veterinarian of Queen Victoria’s England, hermits himself away behind the high walls of Dolittle Manor with only his menagerie of exotic animals for company. But when the young queen falls gravely ill, a reluctant Dolittle is forced to set sail on an epic adventure to a mythical island in search of a cure, regaining his wit and courage as he crosses old adversaries and discovers wondrous creatures.",
      "release_date": "2020-01-01"
    }
  ],
  "page": 1,
  "total_results": 267,
  "dates": { "maximum": "2020-03-16", "minimum": "2020-02-28" },
  "total_pages": 14
}
