{
  "page": 1,
  "total_results": 21,
  "total_pages": 2,
  "results": [
    {
      "popularity": 35.392,
      "vote_count": 21522,
      "video": false,
      "poster_path": "/cezWGskPY5x7GaglTTRN4Fugfb8.jpg",
      "id": 24428,
      "adult": false,
      "backdrop_path": "/hbn46fQaRmlpBuUrEiFqv0GDL6Y.jpg",
      "original_language": "en",
      "original_title": "The Avengers",
      "genre_ids": [28, 12, 878],
      "title": "The Avengers",
      "vote_average": 7.7,
      "overview": "When an unexpected enemy emerges and threatens global safety and security, Nick Fury, director of the international peacekeeping agency known as S.H.I.E.L.D., finds himself in need of a team to pull the world back from the brink of disaster. Spanning the globe, a daring recruitment effort begins!",
      "release_date": "2012-04-25"
    },
    {
      "popularity": 9.613,
      "id": 9320,
      "video": false,
      "vote_count": 390,
      "vote_average": 4.3,
      "title": "The Avengers",
      "release_date": "1998-08-13",
      "original_language": "en",
      "original_title": "The Avengers",
      "genre_ids": [53, 878],
      "backdrop_path": "/8YW4rwWQgC2JRlBcpStMNUko13k.jpg",
      "adult": false,
      "overview": "British Ministry agent John Steed, under direction from \"Mother\", investigates a diabolical plot by arch-villain Sir August de Wynter to rule the world with his weather control machine. Steed investigates the beautiful Doctor Mrs. Emma Peel, the only suspect, but simultaneously falls for her and joins forces with her to combat Sir August.",
      "poster_path": "/7cJGRajXMU2aYdTbElIl6FtzOl2.jpg"
    },
    {
      "popularity": 2.032,
      "id": 448366,
      "video": true,
      "vote_count": 12,
      "vote_average": 8.6,
      "title": "Building the Dream: Assembling the Avengers",
      "release_date": "2012-09-25",
      "original_language": "en",
      "original_title": "Building the Dream: Assembling the Avengers",
      "genre_ids": [99],
      "backdrop_path": null,
      "adult": false,
      "overview": "This 90-minute feature will show how the films Iron Man, The Incredible Hulk, Iron Man 2, Thor, and Captain America: The First Avenger were conceived and led to the greatest super hero team ever assembled on screen The Avengers.",
      "poster_path": "/2RDUQpzhJHVzObkL4ZxwJkbKYSz.jpg"
    },
    {
      "popularity": 1.348,
      "id": 487555,
      "video": false,
      "vote_count": 1,
      "vote_average": 8,
      "title": "The Avengers: Earth's Mightiest Heroes - Prelude",
      "release_date": "2010-09-22",
      "original_language": "en",
      "original_title": "The Avengers: Earth's Mightiest Heroes - Prelude",
      "genre_ids": [16, 28],
      "backdrop_path": null,
      "adult": false,
      "overview": "A 110 minute prelude to the 2010 animated series, consisting of five-and-a-half-minute chapters created from footage from season-one episodes, premiered online and on Disney XD on September 22, 2010. Series supervising producer Josh Fine said the goal was to \"let us explore the individual members of the team in their own ongoing adventures ... do a lot of character development and set the stage for the rest of the season\".",
      "poster_path": "/3o7MpOaDkeAcvxqEjgbIcXrcepB.jpg"
    },
    {
      "popularity": 0.6,
      "id": 432413,
      "video": false,
      "vote_count": 1,
      "vote_average": 10,
      "title": "The Avengers",
      "release_date": "1950-06-10",
      "original_language": "en",
      "original_title": "The Avengers",
      "genre_ids": [12],
      "backdrop_path": null,
      "adult": false,
      "overview": "The attractive Argentine Don Careless is an adventurer and an excellent swordsman. Don is in love with Maria Moreno, since he had to emerge her jewels and had thereby to kill a shark. Don tries to prevent the forced marriage of Mary with the ruthless revolutionary Colonel Luis Corral. An armed clash between Don and Luis seems inevitable.",
      "poster_path": "/dqDoCzAsYC4W6GHP9eiXtvPoiRh.jpg"
    },
    {
      "popularity": 0.776,
      "id": 448368,
      "video": true,
      "vote_count": 8,
      "vote_average": 8.3,
      "title": "The Avengers: A Visual Journey",
      "release_date": "2012-09-25",
      "original_language": "en",
      "original_title": "The Avengers: A Visual Journey",
      "genre_ids": [],
      "backdrop_path": null,
      "adult": false,
      "overview": "Joss Whedon and others in interviews discussing the aims for this new franchise.",
      "poster_path": "/2kBT7KONKQTIhkMc2ZtPU11E8Ky.jpg"
    },
    {
      "popularity": 0.6,
      "vote_count": 3,
      "video": true,
      "poster_path": null,
      "id": 448364,
      "adult": false,
      "backdrop_path": null,
      "original_language": "en",
      "original_title": "The Avengers: Assembling the Ultimate Team",
      "genre_ids": [99],
      "title": "The Avengers: Assembling the Ultimate Team",
      "vote_average": 6.7,
      "overview": "Joss Whedon and others in interviews discussing the aims for this new franchise.",
      "release_date": "2012-09-25"
    },
    {
      "popularity": 29.022,
      "vote_count": 15042,
      "video": false,
      "poster_path": "/t90Y3G8UGQp0f0DrP60wRu9gfrH.jpg",
      "id": 99861,
      "adult": false,
      "backdrop_path": "/rFtsE7Lhlc2jRWF7SRAU0fvrveQ.jpg",
      "original_language": "en",
      "original_title": "Avengers: Age of Ultron",
      "genre_ids": [28, 12, 878],
      "title": "Avengers: Age of Ultron",
      "vote_average": 7.3,
      "overview": "When Tony Stark tries to jumpstart a dormant peacekeeping program, things go awry and Earth’s Mightiest Heroes are put to the ultimate test as the fate of the planet hangs in the balance. As the villainous Ultron emerges, it is up to The Avengers to stop him from enacting his terrible plans, and soon uneasy alliances and unexpected action pave the way for an epic and unique global adventure.",
      "release_date": "2015-04-22"
    },
    {
      "popularity": 1.953,
      "vote_count": 4,
      "video": false,
      "poster_path": "/hKWIeFDfaTnar4zsLwAP8AktSma.jpg",
      "id": 64128,
      "adult": false,
      "backdrop_path": "/2lQ4jaCeIyNe03XNN2waqIOrlLS.jpg",
      "original_language": "en",
      "original_title": "The Day Will Dawn",
      "genre_ids": [18, 10752],
      "title": "The Day Will Dawn",
      "vote_average": 5.5,
      "overview": "Horse race tipster and journalist Metcalfe is picked for the job of foreign correspondent in Norway when Hitler invades Poland. On the way to Norway his boat is attacked by a German U-Boat, however when he tells the navy about it they disbelief him and, to make matters worse, he is removed from his job. When German forces invade Norway, Metcalfe returns determined to uncover what is going on and stop the Germans in their tracks.",
      "release_date": "1942-06-08"
    },
    {
      "popularity": 68.029,
      "vote_count": 16807,
      "video": false,
      "poster_path": "/7WsyChQLEftFiDOVTGkv3hFpyyt.jpg",
      "id": 299536,
      "adult": false,
      "backdrop_path": "/bOGkgRGdhrBYJSLpXaxhXVstddV.jpg",
      "original_language": "en",
      "original_title": "Avengers: Infinity War",
      "genre_ids": [28, 12, 878],
      "title": "Avengers: Infinity War",
      "vote_average": 8.3,
      "overview": "As the Avengers and their allies have continued to protect the world from threats too large for any one hero to handle, a new danger has emerged from the cosmic shadows: Thanos. A despot of intergalactic infamy, his goal is to collect all six Infinity Stones, artifacts of unimaginable power, and use them to inflict his twisted will on all of reality. Everything the Avengers have fought for has led up to this moment - the fate of Earth and existence itself has never been more uncertain.",
      "release_date": "2018-04-25"
    },
    {
      "popularity": 2.043,
      "vote_count": 8,
      "video": false,
      "poster_path": "/dCOunTkqPJR8EtlR4LhMikgLVXB.jpg",
      "id": 109088,
      "adult": false,
      "backdrop_path": "/solWwr2FNqbE0CryPSAS6QIJ52c.jpg",
      "original_language": "zh",
      "original_title": "方世玉與胡惠乾",
      "genre_ids": [28],
      "title": "The Shaolin Avengers",
      "vote_average": 5.9,
      "overview": "The famous story of the Shaolin Temple's betrayal by the White-Browed Hermit, and the subsequent revenge by Shaolin firebrand Fang Shih-yu, is the stuff of legend. It has been filmed many times by many directors, but few are remembered as fondly as this production. The potent combination of director Chang Cheh and international idol Alexander Fu Sheng caught lightning in a lens.",
      "release_date": "1976-06-18"
    },
    {
      "popularity": 1.306,
      "id": 516339,
      "video": false,
      "vote_count": 8,
      "vote_average": 5.3,
      "title": "Super Family. Better Than Avengers",
      "release_date": "2017-12-25",
      "original_language": "ru",
      "original_title": "СуперБобровы. Народные мстители",
      "genre_ids": [10751, 35],
      "backdrop_path": "/bsm7vCzMtE1aA1WDLoi310aY1oe.jpg",
      "adult": false,
      "overview": "The continuations of the adventures of Bobrov family all members of which suddenly became superheroes...",
      "poster_path": "/6iN2NxsyNf3WEQwDSWaYaGTVQ60.jpg"
    },
    {
      "popularity": 2.493,
      "id": 65591,
      "video": false,
      "vote_count": 14,
      "vote_average": 6.9,
      "title": "The New Adventures of the Elusive Avengers",
      "release_date": "1968-06-06",
      "original_language": "ru",
      "original_title": "Новые приключения неуловимых",
      "genre_ids": [28, 12, 10751],
      "backdrop_path": "/6ajw8PjpnelE6l28VZRB6PX4KM.jpg",
      "adult": false,
      "overview": "A brilliant continuation of the saga, now in the city. The target of young patriots is a map held in the safe locker in the headquarters of secret police!",
      "poster_path": "/cVg2esz4zheJo6iCA3FhkQtJ3NR.jpg"
    },
    {
      "popularity": 0.876,
      "id": 275663,
      "video": false,
      "vote_count": 0,
      "vote_average": 0,
      "title": "The Lama Avenger",
      "release_date": "1979-03-15",
      "original_language": "en",
      "original_title": "The Lama Avenger",
      "genre_ids": [28, 18],
      "backdrop_path": null,
      "adult": false,
      "overview": "When two acrobats are fired for fighting with punks in the audience, they go to live with an aunt who's being pressured to sell her house for a real estate development. The developer's nasty son, Lee Fu, decides to muscle the sale, and soon he's at war with the acrobats, plus their unlikely ally, an American named John who used to be Lee Fu's friend. The acrobats open a kung fu school, the scene of several battles with Lee Fu's thugs. A fight to the death, jail time, auntie's surprise decision, a budding acting career, a possessive girlfriend, a debilitating injury, a friendship that needs recalibrating, and Lee Fu's avenger are all in the mix before the end.",
      "poster_path": "/nTqwcAsxZyvp0ggSTWGcI3Qezrw.jpg"
    },
    {
      "popularity": 2.92,
      "id": 41979,
      "video": false,
      "vote_count": 18,
      "vote_average": 7.3,
      "title": "The Elusive Revengers",
      "release_date": "1966-06-06",
      "original_language": "ru",
      "original_title": "Неуловимые мстители",
      "genre_ids": [28, 12, 10751],
      "backdrop_path": "/yFqQT8DrDBb5K56JfXHwkxp8S08.jpg",
      "adult": false,
      "overview": "Dan'ka's and Ksanka's childhood in the village has been brutally ended when their father was killed by the White Guard officer in front of their eyes. Seeking revenge they join forces with an intellectual from the city Valerka and jipsy Yashka, but before they get close to their enemy they have to help their village and advancing Red Army.",
      "poster_path": "/3JNadErAANmweSQtdVIbQkehW59.jpg"
    },
    {
      "popularity": 7.961,
      "vote_count": 166,
      "video": false,
      "poster_path": "/pmNYggLktcWHzQeCru5ywL4OiRH.jpg",
      "id": 14609,
      "adult": false,
      "backdrop_path": "/mZO4V0ALx15QTgWr4SaXYGT7i60.jpg",
      "original_language": "en",
      "original_title": "Ultimate Avengers",
      "genre_ids": [28, 12, 16, 878],
      "title": "Ultimate Avengers",
      "vote_average": 6.5,
      "overview": "When a nuclear missile was fired at Washington in 1945, Captain America managed to detonate it in the upper atmosphere. But then he fell miles into the icy depths of the North Atlantic, where he remained lost for over sixty years. But now, with the world facing the very same evil, Captain America must rise again as our last hope for survival.",
      "release_date": "2006-02-21"
    },
    {
      "popularity": 0.6,
      "id": 377364,
      "video": false,
      "vote_count": 0,
      "vote_average": 0,
      "title": "Lesbian Avengers Eat Fire Too",
      "release_date": "1993-01-01",
      "original_language": "en",
      "original_title": "Lesbian Avengers Eat Fire Too",
      "genre_ids": [99],
      "backdrop_path": null,
      "adult": false,
      "overview": "An insider's look at the first year of an activist group known as the Lesbian Avengers.",
      "poster_path": "/51TLL3fkUrM8ib4LmVWigD6mB7s.jpg"
    },
    {
      "popularity": 1.4,
      "id": 187745,
      "video": false,
      "vote_count": 2,
      "vote_average": 8.5,
      "title": "Hercules vs. the Giant Warriors",
      "release_date": "1964-01-30",
      "original_language": "it",
      "original_title": "Il trionfo di Ercole",
      "genre_ids": [12],
      "backdrop_path": "/bUVW71dlYtDP0u3s6KFyFeaCDTY.jpg",
      "adult": false,
      "overview": "Hercules, having agreed to restore justice to Mycenae, confronts evil Prince Myles. The villain is invested with power over giant bronze warriors by his mother Pasiphaë, a sorceress in Hades. Myles assassinates the king and abducts his cousin, Queen Ate, through whom he plans to inherit the throne. Although Zeus temporarily removes Hercules' strength for killing Eurystheus, an innocent man framed by Myles, the god restores his powers. Hercules then saves Ate and destroys Myles, Pasiphaë, and the giant warriors.",
      "poster_path": "/6nig2vZCa1mlZDyOD7l8bxy7sP5.jpg"
    },
    {
      "popularity": 0.701,
      "id": 413553,
      "video": false,
      "vote_count": 1,
      "vote_average": 6,
      "title": "The Young Avengeress",
      "release_date": "1969-04-17",
      "original_language": "zh",
      "original_title": "十三妹",
      "genre_ids": [28, 12],
      "backdrop_path": null,
      "adult": false,
      "overview": "An evil lord kidnaps 12 sisters to start his harem, leaving the 13th sister to find a way to free them.",
      "poster_path": "/ui2QkIOPpvlfVmqhLbbyKUxOqyb.jpg"
    },
    {
      "popularity": 3.245,
      "vote_count": 33,
      "video": false,
      "poster_path": "/hWgyQ1Yv9tHz0m8eBzKbPkLjtrD.jpg",
      "id": 40081,
      "adult": false,
      "backdrop_path": "/5nwuBYksiGkrACCVgq086L9zwWm.jpg",
      "original_language": "zh",
      "original_title": "残缺",
      "genre_ids": [28, 18],
      "title": "Crippled Avengers",
      "vote_average": 6.7,
      "overview": "Crippled Avengers is a 1978 Shaw Brothers kung fu film directed by Chang Cheh and starring four members of the Venom Mob. It has been released in North America as Mortal Combat and Return of the 5 Deadly Venoms. The film follows a group of martial artists seeking revenge after being crippled by Tu Tin-To (Chen Kuan Tai), a martial arts master, and his son (Lu Feng).",
      "release_date": "1978-12-20"
    }
  ]
}
